    OpenRGB v0.7
    Commit:  from 
    Launched: 20220106_225723
====================================================================================================

0     |Info:    Found file: All White.orp attempting to validate header
2     |Info:    Valid v3 profile found for All White
2     |Info:    Found file: Train Simulator.orp attempting to validate header
2     |Info:    Valid v2 profile found for Train Simulator
338   |Info:    Loading plugins
3642  |Info:    Profile loading: Succeeded for Logitech G910 Orion Spectrum @ 
