01:30:01.961875 Log continuation - Log started 2021-11-26T16:46:57.328009000Z
01:30:02.353895 GUI: UIMediumEnumerator: Medium-enumeration finished!
01:33:46.136764 GUI: UIMediumEnumerator: Medium-enumeration finished!
01:36:48.406670 GUI: UIMediumEnumerator: Medium-enumeration finished!
01:37:57.511982 GUI: UIMediumEnumerator: Medium-enumeration finished!
01:47:42.614231 GUI: UIMediumEnumerator: Medium-enumeration finished!
01:49:50.301386 GUI: UIMediumEnumerator: Medium-enumeration finished!
01:49:50.546446 GUI: UIMediumEnumerator: Medium-enumeration finished!
01:50:28.273894 GUI: UIMediumEnumerator: Medium-enumeration finished!
01:50:28.349375 GUI: UIMediumEnumerator: Medium-enumeration finished!
01:51:48.811199 GUI: UIMediumEnumerator: Medium-enumeration finished!
01:52:31.288149 GUI: UIMediumEnumerator: Medium-enumeration finished!
