00:00:00.209416 VirtualBox GUI VM Selector Window 6.1.30 r148432 linux.amd64 (Nov 22 2021 19:44:56) release log
00:00:00.209418 Log opened 2021-11-26T17:08:33.590655000Z
00:00:00.209418 Build Type: release
00:00:00.209420 OS Product: Linux
00:00:00.209421 OS Release: 5.15.4-arch1-1
00:00:00.209422 OS Version: #1 SMP PREEMPT Sun, 21 Nov 2021 21:34:33 +0000
00:00:00.209441 DMI Product Name: HP Pavilion Power Desktop 580-1xx
00:00:00.209447 DMI Product Version: 
00:00:00.209451 Firmware type: UEFI
00:00:00.213064 Secure Boot: Disabled
00:00:00.213108 Host RAM: 15949MB (15.5GB) total, 8890MB (8.6GB) available
00:00:00.213111 Executable: /usr/lib/virtualbox/VirtualBox
00:00:00.213112 Process ID: 3500
00:00:00.213112 Package type: LINUX_64BITS_GENERIC (OSE)
00:00:00.213143 Qt version: 5.15.2
00:00:00.220859 GUI: UIMediumEnumerator: Medium-enumeration started...
00:00:00.616832 GUI: UIDesktopWidgetWatchdog::sltHandleHostScreenAvailableGeometryCalculated: Screen 0 work area is actually resized to: 2565x40 x 611x473
00:00:00.628353 GUI: UIDesktopWidgetWatchdog::sltHandleHostScreenAvailableGeometryCalculated: Screen 1 work area is actually resized to: 2565x527 x 298x473
00:00:00.644743 GUI: UIMediumEnumerator: Medium-enumeration finished!
00:00:04.863554 GUI: UIInvisibleWindow::sltFallback: Some event haven't came. Screen: 0, work area: 2565x40 x 611x473
00:00:04.906713 GUI: UIInvisibleWindow::sltFallback: Some event haven't came. Screen: 1, work area: 2565x527 x 298x473
