00:00:00.380977 VirtualBox GUI VM Selector Window 6.1.30 r148432 linux.amd64 (Nov 22 2021 19:44:56) release log
00:00:00.380978 Log opened 2021-11-26T16:46:57.328009000Z
00:00:00.380978 Build Type: release
00:00:00.380980 OS Product: Linux
00:00:00.380981 OS Release: 5.15.4-arch1-1
00:00:00.380981 OS Version: #1 SMP PREEMPT Sun, 21 Nov 2021 21:34:33 +0000
00:00:00.380999 DMI Product Name: HP Pavilion Power Desktop 580-1xx
00:00:00.381004 DMI Product Version: 
00:00:00.381007 Firmware type: UEFI
00:00:00.385042 Secure Boot: Disabled
00:00:00.385070 Host RAM: 15949MB (15.5GB) total, 15066MB (14.7GB) available
00:00:00.385072 Executable: /usr/lib/virtualbox/VirtualBox
00:00:00.385073 Process ID: 2291
00:00:00.385073 Package type: LINUX_64BITS_GENERIC (OSE)
00:00:00.385099 Qt version: 5.15.2
00:00:00.392373 GUI: UIMediumEnumerator: Medium-enumeration started...
00:00:00.758383 GUI: UIDesktopWidgetWatchdog::sltHandleHostScreenAvailableGeometryCalculated: Screen 0 work area is actually resized to: 20x40 x 931x1016
00:00:00.775572 GUI: UIDesktopWidgetWatchdog::sltHandleHostScreenAvailableGeometryCalculated: Screen 1 work area is actually resized to: 965x40 x 931x501
00:00:00.782077 GUI: UIMediumEnumerator: Medium-enumeration finished!
00:02:19.302261 GUI: UIMediumEnumerator: Medium with key={{99394c1b-02c9-4c0b-8a46-7b569f9f4e7a}} created
00:02:19.482628 GUI: UIMediumEnumerator: Medium-enumeration finished!
00:04:00.698019 GUI: UIMediumEnumerator: Medium with key={{a9b1b4b3-5dd7-4a3c-a3c0-d5cf34fdc40f}} created
00:04:00.759342 GUI: UIMediumEnumerator: Medium-enumeration finished!
00:05:37.665740 GUI: UIMediumEnumerator: Medium-enumeration finished!
00:05:37.718646 GUI: UIMediumEnumerator: Medium-enumeration finished!
00:05:37.791286 GUI: UIMediumEnumerator: Medium-enumeration finished!
00:07:25.506811 GUI: UIMediumEnumerator: Medium-enumeration finished!
00:27:06.811802 GUI: UIMediumEnumerator: Medium with key={{ebcc0dff-2c9a-4370-b100-ec61665b997d}} created
00:27:06.937574 GUI: UIMediumEnumerator: Medium-enumeration finished!
00:28:29.660104 GUI: UIMediumEnumerator: Medium-enumeration finished!
00:29:20.870417 GUI: UIMediumEnumerator: Medium-enumeration finished!
01:30:01.957765 GUI: UIMediumEnumerator: Medium-enumeration finished!
01:30:01.960424 Log rotated - Log started 2021-11-26T16:46:57.328009000Z
