00:00:00.399356 VirtualBox GUI VM Selector Window 6.1.30 r148432 linux.amd64 (Dec 10 2021 19:46:42) release log
00:00:00.399357 Log opened 2022-01-02T20:57:42.063643000Z
00:00:00.399358 Build Type: release
00:00:00.399359 OS Product: Linux
00:00:00.399360 OS Release: 5.15.12-arch1-1
00:00:00.399360 OS Version: #1 SMP PREEMPT Wed, 29 Dec 2021 12:04:56 +0000
00:00:00.399377 DMI Product Name: HP Pavilion Power Desktop 580-1xx
00:00:00.399382 DMI Product Version: 
00:00:00.399385 Firmware type: UEFI
00:00:00.403823 Secure Boot: Disabled
00:00:00.403854 Host RAM: 15949MB (15.5GB) total, 12304MB (12.0GB) available
00:00:00.403856 Executable: /usr/lib/virtualbox/VirtualBox
00:00:00.403857 Process ID: 48701
00:00:00.403857 Package type: LINUX_64BITS_GENERIC (OSE)
00:00:00.403883 Qt version: 5.15.2
00:00:00.414461 GUI: UIMediumEnumerator: Medium-enumeration started...
00:00:00.817339 GUI: UIDesktopWidgetWatchdog::sltHandleHostScreenAvailableGeometryCalculated: Screen 0 work area is actually resized to: 1940x40 x 611x960
00:00:00.841711 GUI: UIDesktopWidgetWatchdog::sltHandleHostScreenAvailableGeometryCalculated: Screen 1 work area is actually resized to: 2565x40 x 611x473
00:00:00.855111 GUI: UIMediumEnumerator: Medium-enumeration finished!
00:00:58.084562 GUI: UIMediumEnumerator: Medium with key={{d623663d-8311-4551-bbab-7f686161fa3d}} created
00:00:58.233330 GUI: UIMediumEnumerator: Medium-enumeration finished!
00:03:43.396030 GUI: UIMediumEnumerator: Medium with key={{4b02e3ab-c514-4e9a-b9d3-ce90daec0bb5}} created
00:03:43.523168 GUI: UIMediumEnumerator: Medium-enumeration finished!
00:04:04.103142 GUI: UIMediumEnumerator: Medium-enumeration finished!
00:04:04.172738 GUI: UIMediumEnumerator: Medium-enumeration finished!
00:04:04.188327 GUI: UIMediumEnumerator: Medium-enumeration finished!
00:14:09.418080 GUI: UIMediumEnumerator: Medium-enumeration finished!
00:51:55.866935 GUI: UIMediumEnumerator: Medium-enumeration finished!
01:00:35.031893 GUI: UIMediumEnumerator: Medium-enumeration finished!
01:00:35.031932 Log rotated - Log started 2022-01-02T20:57:42.063643000Z
